<?xml version="1.0" encoding="utf-8"?>
<!-- Generator: Adobe Illustrator 24.3.0, SVG Export Plug-In . SVG Version: 6.00 Build 0)  -->
<svg version="1.1" id="Vrstva_1" xmlns="http://www.w3.org/2000/svg" xmlns:xlink="http://www.w3.org/1999/xlink" x="0px" y="0px"
	 viewBox="0 0 571.5 125.2" style="enable-background:new 0 0 571.5 125.2;" xml:space="preserve">
<path style="fill:#FFFFFF;" d="M180.5,86.4c0,11.3-4.2,20.7-12.5,28.2c-7.8,6.9-17,10.4-27.7,10.4c-10.9,0-20.8-3.8-29.6-11.4
	l3.2-16.8c7.5,9.8,16.1,14.7,25.7,14.7c7.1,0,13.3-2.3,18.6-6.8c5.7-4.9,8.5-11.1,8.5-18.6c0-9.4-4.2-16.8-12.5-22.1
	c-7.7-4.2-15.4-8.4-23.1-12.6c-8.3-5.8-12.4-13.7-12.4-23.9c0-8,3-14.7,9.1-19.9c5.6-4.8,12.2-7.3,19.8-7.3c6,0,12.1,1.9,18.2,5.6
	l-3,15c-4.8-4.6-9.7-6.9-14.5-6.9c-4,0-7.5,1.2-10.4,3.6c-3.4,2.6-5.1,6-5.1,10.2c0,5.8,4.1,10.8,12.4,15.1
	c12.9,6.7,20.5,11.1,23,13.2C176.4,63.4,180.5,73.4,180.5,86.4z"/>
<path style="fill:#FFFFFF;" d="M319,62.5c0,17.1-6.4,31.8-19.2,44c-12.8,12.3-28.3,18.4-46.4,18.4c-18.2,0-33.6-6.1-46.5-18.4
	c-12.8-12.3-19.2-27-19.2-44c0-17.1,6.4-31.7,19.2-44c12.8-12.2,28.3-18.3,46.5-18.3c18.1,0,33.5,6.1,46.4,18.3
	C312.6,30.8,319,45.4,319,62.5z M303.9,62.6c0-13.5-4.9-25-14.8-34.4c-9.9-9.5-21.7-14.2-35.7-14.2c-13.9,0-25.9,4.7-35.7,14.2
	c-9.9,9.5-14.8,20.9-14.8,34.4c0,13.6,4.9,25.1,14.8,34.6c9.9,9.5,21.8,14.3,35.7,14.3c13.9,0,25.8-4.8,35.6-14.3
	C298.9,87.7,303.9,76.1,303.9,62.6z"/>
<g>
	<path style="fill:#FFFFFF;" d="M571.5,86.4c0,11.3-4.2,20.7-12.5,28.2c-7.8,6.9-17,10.4-27.7,10.4c-10.9,0-20.8-3.8-29.6-11.4
		l3.2-16.8c7.5,9.8,16.1,14.7,25.7,14.7c7.1,0,13.3-2.3,18.6-6.8c5.7-4.9,8.5-11.1,8.5-18.6c0-9.4-4.2-16.8-12.5-22.1
		c-7.7-4.2-15.4-8.4-23.1-12.6c-8.3-5.8-12.4-13.7-12.4-23.9c0-8,3-14.7,9.1-19.9c5.6-4.8,12.2-7.3,19.8-7.3c6,0,12.1,1.9,18.2,5.6
		l-3,15c-4.8-4.6-9.7-6.9-14.5-6.9c-4,0-7.5,1.2-10.4,3.6c-3.4,2.6-5.1,6-5.1,10.2c0,5.8,4.1,10.8,12.4,15.1
		c12.9,6.7,20.5,11.1,23,13.2C567.4,63.4,571.5,73.4,571.5,86.4z"/>
</g>
<g>
	<path style="fill:#FFFFFF;" d="M364.1,99.8h-27.3V0h10.8v88.8h16.5V99.8z"/>
	<path style="fill:#FFFFFF;" d="M385.2,99.8h-10.8V0h10.8V99.8z"/>
	<path style="fill:#FFFFFF;" d="M458,49.6c0,13.5-4.6,25.3-13.9,35.2c-9.3,9.9-20.4,14.9-33.3,14.9h-8.2V0h8.2
		c12.9,0,24,4.9,33.3,14.7C453.4,24.5,458,36.2,458,49.6z M447.3,49.6c0-10.4-3.3-19.3-9.9-26.6s-14.6-11.4-24.1-12v77.8
		c9.5-0.6,17.6-4.7,24.1-12.2S447.3,60,447.3,49.6z"/>
	<path style="fill:#FFFFFF;" d="M484.1,99.8h-10.8V0h10.8V99.8z"/>
</g>
<rect x="325.8" y="114.4" style="fill:#FFFFFF;" width="171.3" height="10.8"/>
<polygon style="fill:#FFFFFF;" points="0,53.5 0,4.3 83.8,53.5 "/>
<polygon style="fill:#FFFFFF;" points="0,73.9 0,123.1 83.8,73.9 "/>
</svg>
