<?xml version="1.0" encoding="utf-8"?>
<!-- Generator: Adobe Illustrator 24.0.3, SVG Export Plug-In . SVG Version: 6.00 Build 0)  -->
<svg version="1.1" id="_x3C_Vrstva_x3E_" xmlns="http://www.w3.org/2000/svg" xmlns:xlink="http://www.w3.org/1999/xlink" x="0px"
	 y="0px" viewBox="0 0 235.91 81.44" style="enable-background:new 0 0 235.91 81.44;" xml:space="preserve">
<style type="text/css">
	.st0{fill:#FFFFFF;}
</style>
<g>
	<g>
		<polygon class="st0" points="95.29,51.27 95.29,24.13 95.29,23.14 94.31,23.14 89.57,23.14 88.59,23.14 88.59,24.13 88.59,56.76 
			88.59,57.74 89.57,57.74 104.99,57.74 105.97,57.74 105.97,56.76 105.97,52.26 105.97,51.27 104.99,51.27 		"/>
		<polygon class="st0" points="107.22,23.14 106.23,23.14 106.23,24.13 106.23,28.54 106.23,29.52 107.22,29.52 112.35,29.52 
			112.35,56.76 112.35,57.74 113.33,57.74 118.05,57.74 119.04,57.74 119.04,56.76 119.04,29.52 124.15,29.52 125.14,29.52 
			125.14,28.54 125.14,24.13 125.14,23.14 124.15,23.14 		"/>
		<path class="st0" d="M145.03,22.5c-4.66,0-8.88,1.73-12.2,5.01c-3.53,3.47-5.39,7.87-5.39,12.73c0,4.74,1.55,8.96,4.47,12.22
			c3.51,3.94,7.91,5.94,13.09,5.94c5.15,0,9.58-1.96,13.16-5.83c3.03-3.29,4.57-7.44,4.57-12.33c0-4.87-1.83-9.25-5.29-12.67
			C154.03,24.2,149.85,22.5,145.03,22.5z M152.55,48.65c-1.99,1.99-4.68,3.09-7.56,3.09c-2.8,0-5.59-1.23-7.65-3.38
			c-1.95-2.02-3.03-4.89-3.03-8.07c0-2.94,1.2-5.85,3.3-7.99c1.95-2,4.57-3.1,7.38-3.1c3.14,0,5.67,1.14,7.94,3.58
			c1.93,2.11,2.96,4.67,2.96,7.41C155.89,43.49,154.71,46.49,152.55,48.65z"/>
		<path class="st0" d="M179.76,23.14h-10.51h-0.99v0.99v32.63v0.98h0.99h9.18c3.94,0,7.81-0.24,11.72-3.08
			c4.5-3.23,6.97-8.24,6.97-14.1c0-5.09-1.67-9.45-4.84-12.62C189.16,24.8,184.82,23.14,179.76,23.14z M187.51,48.54
			c-1.88,1.88-4.63,2.88-7.93,2.88h-4.75V29.56h3.89c3.73,0,6.77,1.06,8.78,3.07c1.89,1.89,2.89,4.65,2.89,7.96
			C190.39,43.9,189.39,46.64,187.51,48.54z"/>
		<path class="st0" d="M230.62,27.56c-3.41-3.35-7.58-5.05-12.4-5.05c-4.65,0-8.87,1.73-12.2,5.01c-3.53,3.47-5.39,7.87-5.39,12.73
			c0,4.74,1.55,8.96,4.47,12.22c3.51,3.94,7.91,5.94,13.09,5.94c5.15,0,9.58-1.96,13.16-5.83c3.03-3.29,4.57-7.44,4.57-12.33
			C235.91,35.36,234.08,30.98,230.62,27.56z M225.73,48.65c-1.99,1.99-4.68,3.09-7.56,3.09c-2.8,0-5.59-1.23-7.64-3.38
			c-1.96-2.02-3.03-4.89-3.03-8.07c0-2.94,1.2-5.85,3.3-7.99c1.95-2,4.57-3.1,7.38-3.1c3.14,0,5.67,1.14,7.94,3.58
			c1.93,2.11,2.96,4.67,2.96,7.41C229.08,43.49,227.89,46.49,225.73,48.65z"/>
	</g>
	<g>
		<g>
			<path class="st0" d="M77.47,23.26H36.02v11.41h36.92v11.86H36.02v11.4h41.57c2.45-5.24,3.83-11.06,3.83-17.21
				C81.42,34.47,80.01,28.56,77.47,23.26z"/>
			<path class="st0" d="M68.9,11.4H24.07v58.39h45.1c-7.35,7.2-17.4,11.65-28.46,11.65C18.28,81.44,0,63.15,0,40.72
				C0,18.29,18.28,0,40.72,0C51.63,0,61.57,4.35,68.9,11.4z"/>
		</g>
	</g>
</g>
</svg>
