<?xml version="1.0" encoding="utf-8"?>
<!-- Generator: Adobe Illustrator 24.3.0, SVG Export Plug-In . SVG Version: 6.00 Build 0)  -->
<svg version="1.1" id="Vrstva_1" xmlns="http://www.w3.org/2000/svg" xmlns:xlink="http://www.w3.org/1999/xlink" x="0px" y="0px"
	 viewBox="0 0 568.9 265.2" style="enable-background:new 0 0 568.9 265.2;" xml:space="preserve">
<style type="text/css">
	.st0{fill:#27348B;}
</style>
<g>
	<path class="st0" d="M114.2,242.4c0-3.5-1.8-6.3-5.5-6.3c-3.8,0-5.5,2.6-5.8,6.3H114.2z M102.8,245.4c0,4.3,2.2,7.4,5.9,7.4
		c3.4,0,4.5-1.7,5.2-3.3h4.4c-0.9,2.9-3.3,6.9-9.7,6.9c-7.2,0-10.1-5.7-10.1-11.6c0-6.8,3.4-12.1,10.4-12.1c7.4,0,9.8,5.8,9.8,10.8
		c0,0.7,0,1.2-0.1,1.9L102.8,245.4L102.8,245.4z M125.4,233.2c3,4.9,4.3,6.9,5.1,8.2l0,0c0.9-1.4,2.7-4.3,5.2-8.2h4.9L133,244
		l7.6,11.8h-5c-2.6-4.3-4.4-7.2-5.2-8.7l0,0c-0.8,1.2-2.5,4.2-5.2,8.7h-4.8l7.5-11.2l-7.3-11.4L125.4,233.2L125.4,233.2z
		 M142.3,233.2h3.8v-6.6h4.4v6.6h4.9v3.5h-4.9v12.8c0,2.1,0.5,3.2,2.5,3.2c0.5,0,1.3,0,1.9-0.2v3.2c-1,0.4-2.4,0.4-3.5,0.4
		c-3.7,0-5.2-1.9-5.2-5.7v-13.7h-3.8L142.3,233.2L142.3,233.2z M159.3,239.4c0-3,0-4.8,0-6.1h4.3c0.1,0.6,0.1,2.5,0.1,4.5
		c1.2-3,3.8-4.9,7.6-5v4.3c-4.6,0.1-7.6,2.3-7.6,8.1V256h-4.4L159.3,239.4L159.3,239.4z M189.2,242.4c0-3.5-1.8-6.3-5.5-6.3
		c-3.8,0-5.5,2.6-5.8,6.3H189.2z M177.8,245.4c0,4.3,2.2,7.4,5.9,7.4c3.4,0,4.5-1.7,5.2-3.3h4.4c-0.9,2.9-3.3,6.9-9.7,6.9
		c-7.2,0-10.1-5.7-10.1-11.6c0-6.8,3.4-12.1,10.4-12.1c7.4,0,9.8,5.8,9.8,10.8c0,0.7,0,1.2-0.1,1.9L177.8,245.4L177.8,245.4z
		 M198.5,239.1c0-2,0-4,0-5.8h4.2c0.1,0.7,0.2,2.2,0.2,3.3c1.1-2,3-3.9,6.5-3.9c3.2,0,5.3,1.6,6.2,3.9c1.2-2.1,3.3-3.9,7.2-3.9
		c3.7,0,7.2,2.2,7.2,8.3v14.8h-4.3v-14.4c0-2.5-0.9-5.1-4.3-5.1c-3.5,0-5,2.6-5,6.5v13H212v-14.2c0-2.8-0.8-5.3-4.2-5.3
		s-5.1,2.7-5.1,6.9v12.5h-4.3v-16.6H198.5z M250.5,242.4c0-3.5-1.8-6.3-5.5-6.3c-3.8,0-5.5,2.6-5.8,6.3H250.5z M239.1,245.4
		c0,4.3,2.2,7.4,5.9,7.4c3.4,0,4.5-1.7,5.2-3.3h4.4c-0.9,2.9-3.3,6.9-9.7,6.9c-7.2,0-10.1-5.7-10.1-11.6c0-6.8,3.4-12.1,10.4-12.1
		c7.4,0,9.8,5.8,9.8,10.8c0,0.7,0,1.2-0.1,1.9L239.1,245.4L239.1,245.4z M270.9,239.1c0-2,0-4,0-5.8h4.2c0.1,0.7,0.2,2.2,0.2,3.3
		c1.1-2,3-3.9,6.5-3.9c3.2,0,5.3,1.6,6.2,3.9c1.2-2.1,3.3-3.9,7.2-3.9c3.7,0,7.2,2.2,7.2,8.3v14.8H298v-14.4c0-2.5-0.9-5.1-4.3-5.1
		c-3.5,0-5,2.6-5,6.5v13h-4.3v-14.2c0-2.8-0.8-5.3-4.2-5.3c-3.4,0-5.1,2.7-5.1,6.9v12.5h-4.3L270.9,239.1L270.9,239.1z M311.7,244.5
		c0,4.8,2.4,8.3,6.2,8.3c3.9,0,6.1-3.2,6.1-8.2s-2.2-8.3-6.2-8.3C313.8,236.3,311.7,239.5,311.7,244.5 M328.5,244.5
		c0,6.6-3.8,11.9-10.8,11.9c-6.6,0-10.5-5-10.5-11.8c0-6.7,3.9-11.9,10.8-11.9C324.4,232.7,328.5,237.4,328.5,244.5 M333.4,238.9
		c0-2,0-4,0-5.7h4.3c0.1,0.7,0.2,2.9,0.2,3.6c0.8-1.9,2.7-4.1,7-4.1s7.6,2.7,7.6,8.6v14.5H348v-14c0-3.2-1.2-5.5-4.6-5.5
		c-4,0-5.6,2.9-5.6,7.4v12.1h-4.4V238.9L333.4,238.9z M358.8,233.2h4.4v22.6h-4.4V233.2z M358.8,223.3h4.4v5h-4.4V223.3z M367,233.2
		h3.8v-6.6h4.4v6.6h4.9v3.5h-4.9v12.8c0,2.1,0.5,3.2,2.5,3.2c0.5,0,1.3,0,1.9-0.2v3.2c-1,0.4-2.4,0.4-3.5,0.4
		c-3.7,0-5.2-1.9-5.2-5.7v-13.7H367V233.2L367,233.2z M386.9,244.5c0,4.8,2.4,8.3,6.2,8.3c3.9,0,6.1-3.2,6.1-8.2s-2.2-8.3-6.2-8.3
		S386.9,239.5,386.9,244.5 M403.7,244.5c0,6.6-3.8,11.9-10.8,11.9c-6.6,0-10.5-5-10.5-11.8c0-6.7,3.9-11.9,10.8-11.9
		C399.6,232.7,403.7,237.4,403.7,244.5 M408.6,239.4c0-3,0-4.8,0-6.1h4.3c0.1,0.6,0.1,2.5,0.1,4.5c1.2-3,3.8-4.9,7.6-5v4.3
		c-4.6,0.1-7.6,2.3-7.6,8.1V256h-4.4V239.4z M424.4,233.2h4.4v22.6h-4.4V233.2z M424.4,223.3h4.4v5h-4.4V223.3z M435.2,238.9
		c0-2,0-4,0-5.7h4.3c0.1,0.7,0.2,2.9,0.2,3.6c0.8-1.9,2.7-4.1,7-4.1s7.6,2.7,7.6,8.6v14.5h-4.4v-14c0-3.2-1.2-5.5-4.6-5.5
		c-4,0-5.6,2.9-5.6,7.4v12.1h-4.4L435.2,238.9L435.2,238.9z M469.5,252c4.7,0,6-3.1,6-7.9c0-4.8-1.2-7.8-5.9-7.8c-3.9,0-6,3.2-6,8
		C463.6,249,465.9,252,469.5,252 M479.6,253.7c0,7.2-2.9,11.5-10.6,11.5c-7.1,0-9.1-4-9.5-7h4.4c0.6,2.3,2.4,3.6,5.3,3.6
		c4.9,0,6.1-3.1,6.1-8.2v-1.7c-1.2,2.4-3.2,3.8-6.9,3.8c-5.6,0-9.4-4.6-9.4-11.2c0-7.3,4.3-11.9,9.8-11.9c4.2,0,6,2,6.5,3.4
		c0-1,0.1-2.4,0.2-2.9h4.1c0,1.4,0,4.4,0,6.5V253.7L479.6,253.7z"/>
	<path class="st0" d="M280,73.2l-12.9-18.6h-39.7l32.8,47.3L280,73.2z M313.4,121.4l46.2,66.7h-39.7L293.5,150l-26.4,38.1h-39.7
		l92.5-133.5h39.7L313.4,121.4z M449.1,88.4c0-11.3,0-23.7-0.3-33.8h35.8c0.8,3.6,1.3,12.9,1.5,17c4.4-8.2,15.2-20.1,38.7-20.1
		c26.8,0,44.1,18.3,44.1,51.8v84.8h-36.8v-80.7c0-15.2-4.9-26-21.4-26c-15.7,0-24.5,8.8-24.5,32.5v74.2h-37.1L449.1,88.4L449.1,88.4
		z M378.8,54.6h37.1v133.5h-37.1V54.6z M378.8,0h37.1v33h-37.1V0z M133.5,121.4c0,25.8,11.1,41,28.9,41c18.3,0,28.3-15.2,28.3-40.7
		c0-27.8-10.3-41-28.9-41C144.8,80.7,133.5,93.3,133.5,121.4 M228,121.1c0,40.5-24.2,70.1-66.5,70.1c-41.2,0-65.4-29.6-65.4-69.3
		c0-41.2,25-70.3,67.3-70.3C202.5,51.5,228,79.4,228,121.1 M0,54.6h20.6v-36h36.8v36.1h26.3v27.8H57.5v66c0,10,3.1,13.9,14.2,13.9
		c2.1,0,5.7,0,8.2-0.3v25.3c-7.2,2.6-17.3,2.6-24.7,2.6c-26,0-34.5-13.9-34.5-37.4V82.5H0V54.6z"/>
</g>
</svg>
