<?xml version="1.0" encoding="utf-8"?>
<!-- Generator: Adobe Illustrator 24.3.0, SVG Export Plug-In . SVG Version: 6.00 Build 0)  -->
<svg version="1.1" id="Layer_1" xmlns="http://www.w3.org/2000/svg" xmlns:xlink="http://www.w3.org/1999/xlink" x="0px" y="0px"
	 viewBox="0 0 70 93.2" style="enable-background:new 0 0 70 93.2;" xml:space="preserve">
<g>
	<g>
		<g>
			<path style="fill:none;stroke:#2B3889;stroke-width:1.2;stroke-linecap:round;stroke-linejoin:round;stroke-miterlimit:10;" d="
				M53.5,26.6c0,2.8-1.2,5.1-2.7,5.1c-0.3,0-0.6-0.1-0.9-0.3c-2.2,8.1-8,13.9-14.9,13.9c-6.9,0-12.7-5.8-14.9-13.9
				c-0.3,0.2-0.6,0.3-0.9,0.3c-1.5,0-2.7-2.3-2.7-5.1c0-2.8,1.2-5.1,2.7-5.1c0,0,0.1,0,0.1,0c0.7-10,5-17.7,15.7-17.7
				c10.4,0,14.9,7.7,15.7,17.7c0,0,0.1,0,0.1,0C52.3,21.5,53.5,23.8,53.5,26.6z"/>
			<path style="fill:none;stroke:#2B3889;stroke-width:1.2;stroke-linecap:round;stroke-linejoin:round;stroke-miterlimit:10;" d="
				M21.2,12.9c3-2.4,5.7-2.7,13.9,1.1c7.3,3.4,12.6,1,14.2-0.1"/>
		</g>
		<g>
			<path style="fill:none;stroke:#2B3889;stroke-width:1.2;stroke-linecap:round;stroke-linejoin:round;stroke-miterlimit:10;" d="
				M2.3,73.6l2-12.7c0.6-4.1,3.5-7.4,7.5-8.7L25.1,48c0.7-0.2,1.2-0.9,1.2-1.7v-3.9"/>
			<path style="fill:none;stroke:#2B3889;stroke-width:1.2;stroke-linecap:round;stroke-linejoin:round;stroke-miterlimit:10;" d="
				M67.7,73.6l-2-12.7c-0.6-4.1-3.5-7.4-7.5-8.7L44.9,48c-0.7-0.2-1.2-0.9-1.2-1.7v-3.9"/>
		</g>
	</g>
	<g>
		<g>
			
				<polygon style="fill:none;stroke:#2B3889;stroke-width:1.2;stroke-linecap:round;stroke-linejoin:round;stroke-miterlimit:10;" points="
				14.9,90.5 11.4,88.8 17.3,73.5 22.8,76.1 			"/>
			
				<line style="fill:none;stroke:#2B3889;stroke-width:1.2;stroke-linecap:round;stroke-linejoin:round;stroke-miterlimit:10;" x1="15.1" y1="79.3" x2="19.8" y2="81.5"/>
			
				<rect x="14.4" y="65.6" transform="matrix(0.9063 0.4226 -0.4226 0.9063 31.8337 -2.7424)" style="fill:none;stroke:#2B3889;stroke-width:1.2;stroke-linecap:round;stroke-linejoin:round;stroke-miterlimit:10;" width="15.3" height="9.7"/>
			<path style="fill:none;stroke:#2B3889;stroke-width:1.2;stroke-linecap:round;stroke-linejoin:round;stroke-miterlimit:10;" d="
				M29.6,54.3L29.6,54.3c-2.9-1.4-6.3-0.1-7.7,2.8l-1.7,3.6c-0.8,1.6-0.1,3.6,1.6,4.3l4.6,2.1c1.6,0.8,3.6,0.1,4.3-1.6l1.7-3.6
				C33.8,59.1,32.5,55.6,29.6,54.3z"/>
		</g>
		<g>
			
				<polygon style="fill:none;stroke:#2B3889;stroke-width:1.2;stroke-linecap:round;stroke-linejoin:round;stroke-miterlimit:10;" points="
				53,64 61.9,87 56.6,89.5 44.8,67.9 			"/>
			
				<line style="fill:none;stroke:#2B3889;stroke-width:1.2;stroke-linecap:round;stroke-linejoin:round;stroke-miterlimit:10;" x1="47.9" y1="73.6" x2="55.4" y2="70.1"/>
			
				<line style="fill:none;stroke:#2B3889;stroke-width:1.2;stroke-linecap:round;stroke-linejoin:round;stroke-miterlimit:10;" x1="40.3" y1="64.3" x2="53.2" y2="58.3"/>
			<path style="fill:none;stroke:#2B3889;stroke-width:1.2;stroke-linecap:round;stroke-linejoin:round;stroke-miterlimit:10;" d="
				M53,57.9c1,2,0.9,4.3-0.1,6.2l-8.1,3.8c-2-0.5-3.8-1.9-4.8-3.9c-1.7-3.6-0.1-7.8,3.5-9.5C47.1,52.7,51.3,54.3,53,57.9z"/>
		</g>
	</g>
</g>
</svg>
