<svg xmlns="http://www.w3.org/2000/svg" viewBox="0 0 284.27 284.27">
  <defs>
    <style>
      .a {
        fill: none;
        stroke: #079e43;
        stroke-linecap: round;
        stroke-miterlimit: 10;
        stroke-width: 36px;
      }
    </style>
  </defs>
  <g>
    <line class="a" x1="142.13" y1="18" x2="142.13" y2="266.27"/>
    <line class="a" x1="266.27" y1="142.13" x2="18" y2="142.13"/>
  </g>
</svg>
