<?xml version="1.0" encoding="utf-8"?>
<!-- Generator: Adobe Illustrator 24.3.0, SVG Export Plug-In . SVG Version: 6.00 Build 0)  -->
<svg version="1.1" id="Layer_2_1_" xmlns="http://www.w3.org/2000/svg" xmlns:xlink="http://www.w3.org/1999/xlink" x="0px" y="0px"
	 viewBox="0 0 42.6 42.6" style="enable-background:new 0 0 42.6 42.6;" xml:space="preserve">
<style type="text/css">
	.st0{fill:none;stroke:#283683;stroke-width:1.2;stroke-linecap:round;stroke-linejoin:round;stroke-miterlimit:10;}
</style>
<g>
	<rect x="10.7" y="4.4" class="st0" width="28.6" height="33.8"/>
	<path class="st0" d="M10.7,4.5c0-2-1.6-3.7-3.7-3.7S3.3,2.4,3.3,4.5v33.8"/>
	<path class="st0" d="M10.7,38.1c0-2-1.6-3.7-3.7-3.7s-3.7,1.6-3.7,3.7S5,41.8,7,41.8h25.8v-3.7"/>
	<g>
		<path class="st0" d="M23.6,8.2v3c-2.6,0.4-4.6,2.4-5,5h-3C16,12,19.4,8.6,23.6,8.2z"/>
		<path class="st0" d="M23.6,22.9v3c-4.2-0.4-7.6-3.8-8-8h3C19,20.5,21,22.5,23.6,22.9z"/>
		<path class="st0" d="M25.3,11.2v-3c2.6,0.3,4.9,1.7,6.4,3.7l-2.6,1.5C28.2,12.2,26.9,11.4,25.3,11.2z"/>
		<path class="st0" d="M33.4,17c0,4.6-3.5,8.4-8,8.8v-3c2.9-0.4,5.1-2.9,5.1-5.9c0-0.7-0.1-1.5-0.4-2.1l2.6-1.5
			C33.1,14.5,33.4,15.8,33.4,17z"/>
		<polyline class="st0" points="28,15.4 23.8,19.6 21.2,17 21.2,17 		"/>
	</g>
	<line class="st0" x1="13.4" y1="30.1" x2="23.6" y2="30.1"/>
	<line class="st0" x1="13.4" y1="32.3" x2="23.6" y2="32.3"/>
	<line class="st0" x1="13.4" y1="34.4" x2="23.6" y2="34.4"/>
	<line class="st0" x1="26.6" y1="30.1" x2="36.8" y2="30.1"/>
	<line class="st0" x1="26.6" y1="32.3" x2="36.8" y2="32.3"/>
	<line class="st0" x1="26.6" y1="34.4" x2="34" y2="34.4"/>
	<line class="st0" x1="30.8" y1="26.5" x2="36.8" y2="26.5"/>
	<line class="st0" x1="32.7" y1="24.3" x2="36.8" y2="24.3"/>
</g>
</svg>
