<?xml version="1.0" encoding="utf-8"?>
<!-- Generator: Adobe Illustrator 24.3.0, SVG Export Plug-In . SVG Version: 6.00 Build 0)  -->
<svg version="1.1" id="Layer_1" xmlns="http://www.w3.org/2000/svg" xmlns:xlink="http://www.w3.org/1999/xlink" x="0px" y="0px"
	 viewBox="0 0 81.6 102" style="enable-background:new 0 0 81.6 102;" xml:space="preserve">
<style type="text/css">
	.st0{fill:none;stroke:#0730E0;stroke-width:2;stroke-linecap:round;stroke-linejoin:round;stroke-miterlimit:10;}
</style>
<g>
	<g>
		<path class="st0" d="M63.2,28.8c0,3.4-1.5,6.2-3.2,6.2c-0.4,0-0.7-0.1-1.1-0.4c-2.6,9.8-9.7,16.9-18.1,16.9s-15.5-7-18.1-16.9
			C22.4,34.8,22,35,21.6,35c-1.8,0-3.2-2.8-3.2-6.2s1.4-6.2,3.2-6.2h0.1C22.5,10.4,27.8,1,40.8,1C53.4,1,59,10.4,59.9,22.5H60
			C61.8,22.5,63.2,25.3,63.2,28.8z"/>
		<path class="st0" d="M23.9,12c3.6-2.9,6.9-3.2,16.9,1.4c8.8,4.1,15.3,1.2,17.2-0.1"/>
	</g>
	<g>
		<path class="st0" d="M22.8,90.4L1,85.9l2.4-15.4c0.8-5,4.3-9,9.1-10.6l16.3-5.2c0.9-0.3,1.5-1.1,1.5-2.1v-4.7"/>
		<path class="st0" d="M58.7,90.4l21.8-4.5l-2.4-15.4c-0.8-5-4.3-9-9.1-10.6l-16.3-5.2c-0.9-0.3-1.5-1.1-1.5-2.1v-4.7"/>
	</g>
	<polyline class="st0" points="51.2,51.5 40.7,61.1 30.3,51.5 	"/>
	<polyline class="st0" points="33.4,62.9 37.1,66.3 40.7,69.5 44.3,66.3 48.1,62.9 	"/>
	<polygon class="st0" points="49.9,91.7 40.7,101 31.5,91.7 37.1,66.3 40.7,69.5 44.3,66.3 	"/>
	<line class="st0" x1="58.6" y1="77.6" x2="70.6" y2="75.1"/>
</g>
</svg>
